0,3,4,6,5,2,1,4,3,5,1,6,7,5,3,4,2,3,4,6,1,2,3,4,5,6,2,1,0,2,4,5,3,4,1,2,4,5,7,6,1,2,9,3,4,7,1,3,7,1,3,7,3,8,9,3,6,5,4,5,8,2,1,8,9,0,4,0,3,2,5,7,3,4,6,8,3,3,1
0,3,5,6,7,8,9,0,1,2,4,3,5,4,6,5,8,6,7,4,9,6,8,2,6,4,2,1,6,3,5,5,8,7,9,3,5,0,2,4,0,3,5,8,9,1,3,1,5,1,6,1,6,2,9,3,5,9,3,4,7,5
0,4,5,7,2,4,6,8,3,5,7,8,4,2,6,6,3,7,2,3,5,8,9,5,4,8,9,2,4,6,3,8,8,0,5,0,6,0,7,0,8,0,9,0,1,2,3,4,1,5,1,6,1,7,1,8,9
9,7,9,8,9,9,9,9,9,8,8,7,7,6,6,5,5,4,4,3,3,2,2,1,1,1,2,7,2,8,2,9,2,0,2,0,2,0,3,0,3,0,3,0,0,0,0,7