60,62,64,65,64,65,64,62,60,64,65,67,69,71,69,67,69,67,65,67,65,64,62,60,62,64,65,64,65,67,65,67,69,71,72,74,76,74,72,74,72,71,72,74,72,76,74,77,79,77,79,77,76,74,72
64,65,62,64,65,67,65,64,65,62,60,59,62,59,60,62,64,62,60,62,60,59,60,62,59,57,59,60,62,64,65,64,62,60,62,64,62,60,62,60,59,57,64,65,67,69,71,72,71,69,67,65,69
62,65,67,67,69,69,71,72,71,69,71,67,65,64,65,64,62,64,65,64,62,60,59,60,62,64,65,64,62,64,62,60,62,64,65,67,69,71,71,72,74,77,79,77,76,77,76,74,72
67,69,71,71,69,67,69,71,69,72,71,69,67,69,67,65,67,65,64,62,60,62,64,65,67,69,67,65,64,65,67,65,64,65,64,62,64,62,60,67,64,60,69,71,72
69,71,71,71,69,71,69,67,69,71,69,67,71,72,72,72,71,72,71,72,74,76,74,72,74,76,77,77,76,74,72,74,71,72,74,76,77,76,74,72,72,71,72,74,76,74,72,71
57,60,64,60,64,60,67,60,57,60,64,57,60,62,64,64,62,65,64,62,60,62,57,60,57,64,57,65,64,62,64,62,60,59,60,62,64,60,62,64,65,64,62,67,65,64,60,64,65,64,60,69,67,65,64,65,67,65,64,65,64,60,62,60,64
64,64,62,60,62,60,57,62,64,64,62,60,62,60,57,62,64,64,62,64,64,62,64,65,64,62,64,62,64,62,60,62,60,57,67,69,67,65,64,60,64,67,65,64,62,60
62,67,69,62,67,62,72,71,69,67,65,67,69,67,65,64,62,64,67,64,60,65,64,62,64,65,64,62,65,67,65,64,62,64,65,64,65,67,64,62,65,64,62,64,62,60,62,64,60,65,60
62,69,72,62,69,72,69,62,67,67,64,62,69,72,62,69,72,69,62,67,67,64,62,64,65,64,62,60,69,65,62,69,65,62,69,62,67,64,60,67,64,60,67,60,69,65,62,69,65,62,69,67,64,60,67,64,60
69,71,69,71,69,71,69,69,74,69,72,69,71,69,69,72,69,71,69,69,67,64,67,64,71,64,72,71,69,71,69,71,69,71,69,69,74,69,72,69,71,69,69,72,69,71,69,67,67,67,67,69,67,65,69,71,72,71,69,67,69
60,64,67,64,60,64,60,64,67,64,60,64,59,64,67,64,59,64,59,64,67,64,59,64,57,64,67,64,64,57,64,67,64,57,67,55,64,67,64,67,64,55,64,67,64,67,64,65,64,65,64,65,64,62,60,59,60,62,64,60,62,64,65,65,65,64,65,64,65,67,65,64,62,60,59
64,67,69,67,69,67,69,71,69,67,65,67,65,64,64,67,69,67,69,64,67,69,67,69,67,69,71,64,67,69,67,69,67,69,71,69,67,64,62,64,67,69,64,67,69,71,69,67,69,71,72,71,69,67,64,60
59,60,67,64,59,60,67,64,57,60,67,60,57,60,64,65,64,60,57,60,62,64,60,57,60,62,60,55,60,62,60,55,60,64,62,65,69,65,62,67,62,67,69,71,69,67,64,60,64,67,64,60,65,60,65,62,64,65,67,65,64,62,60
60,59,57,64,60,59,57,55,57,52,60,62,62,60,60,59,57,64,60,59,57,55,57,57,59,60,62,62,62,62,62,62,60,59,60,59,57,59,60,62,62,62,62,62,60,62,64,65,60,65,69,69,67,65,67,65,64,62,64,65,64,62,60
64,69,64,67,69,69,74,69,72,69,64,64,67,69,64,67,69,69,76,69,72,69,67,69,72,74,69,72,74,69,72,74,69,72,74,74,76,74,72,74,72,71,72,71,69,71,69,67,69,69,67,69,69,67,69,69,67,69
